{
  "images" : [
    {
      "idiom" : "iphone",
      "scale" : "1x"
    },
    {
      "idiom" : "iphone",
      "filename" : "radioOnWhite.png",
      "scale" : "2x"
    },
    {
      "idiom" : "iphone",
      "filename" : "radioOnWhite 2.png",
      "scale" : "3x"
    },
    {
      "idiom" : "ipad",
      "filename" : "radioOnWhite-1.png",
      "scale" : "1x"
    },
    {
      "idiom" : "ipad",
      "filename" : "radioOnWhite 2-1.png",
      "scale" : "2x"
    }
  ],
  "info" : {
    "version" : 1,
    "author" : "xcode"
  }
}