{
  "images" : [
    {
      "idiom" : "iphone",
      "scale" : "1x"
    },
    {
      "idiom" : "iphone",
      "filename" : "star_ 2.png",
      "scale" : "2x"
    },
    {
      "idiom" : "iphone",
      "filename" : "star_ 3.png",
      "scale" : "3x"
    },
    {
      "idiom" : "ipad",
      "filename" : "star_-1.png",
      "scale" : "1x"
    },
    {
      "idiom" : "ipad",
      "filename" : "star_.png",
      "scale" : "2x"
    }
  ],
  "info" : {
    "version" : 1,
    "author" : "xcode"
  }
}