{
  "images" : [
    {
      "idiom" : "iphone",
      "scale" : "1x"
    },
    {
      "idiom" : "iphone",
      "filename" : "user-notes copy.png",
      "scale" : "2x"
    },
    {
      "idiom" : "iphone",
      "filename" : "user-notes copy 2.png",
      "scale" : "3x"
    },
    {
      "idiom" : "ipad",
      "filename" : "user-notes-1.png",
      "scale" : "1x"
    },
    {
      "idiom" : "ipad",
      "filename" : "user-notes.png",
      "scale" : "2x"
    }
  ],
  "info" : {
    "version" : 1,
    "author" : "xcode"
  }
}